%YAML 1.1
%TAG !u! tag:unity3d.com,2011:
--- !u!78 &1
TagManager:
  serializedVersion: 2
  tags:
  - Solid
  - Liquid
  - Void
  layers:
  - Default
  - TransparentFX
  - Ignore Raycast
  - 
  - Water
  - UI
  - 
  - 
  - 
  - 
  - 
  - 
  - 
  - 
  - 
  - 
  - 
  - 
  - 
  - 
  - 
  - 
  - 
  - 
  - 
  - 
  - 
  - 
  - 
  - 
  - 
  - 
  m_SortingLayers:
  - name: Default
    uniqueID: 0
    locked: 0
  - name: Floor
    uniqueID: 3131993583
    locked: 0
  - name: Wall
    uniqueID: 2582032765
    locked: 0
  - name: Legs
    uniqueID: 349316125
    locked: 0
  - name: Body
    uniqueID: 3712079327
    locked: 0
  - name: Head
    uniqueID: 3393972251
    locked: 0
  - name: Hands
    uniqueID: 1861650685
    locked: 0
  - name: Shadow
    uniqueID: 4196221275
    locked: 0
